Introduction to MLE and MLM - Measuring Substantive Effects on Binary Outcomes
…
Calculate the average predicted probability for each of these values of \(x_i\).

Calculate the difference between these averages.

Discuss the substantive significance of this difference.

Let’s explore the same question as above to illustrate.

First, find the predicted probability of an individual voting when \(close = 20\):

result_20 <- augment(m1, newdata = mutate(voters, close = 20), type.predict = "response")
result_20

# A tibble: 2,446 × 5
   vote         close edu7cat homeown       .fitted
   <fct>        <dbl> <fct>   <fct>           <dbl>
 1 Voted           20 6       Homeowner       0.861
 2 Voted           20 6       Homeowner       0.861
 3 Voted           20 4       Homeowner       0.601
 4 Voted           20 5       Homeowner       0.758
 5 Voted           20 7       Not homeowner   0.784
 6 Voted           20 5       Not homeowner   0.579
 7 Voted           20 7       Homeowner       0.892
 8 Voted           20 6       Homeowner       0.861
 9 Voted           20 2       Homeowner       0.590
10 Did not vote    20 5       Homeowner       0.758
# … with 2,436 more rows

Next, find the predicted probability of an individual voting when \(close = 0\):

result_0 <- augment(m1, newdata = mutate(voters, close = 0), type.predict = "response")
result_0

# A tibble: 2,446 × 5
   vote         close edu7cat homeown       .fitted
   <fct>        <dbl> <fct>   <fct>           <dbl>
 1 Voted            0 6       Homeowner       0.875
 2 Voted            0 6       Homeowner       0.875
 3 Voted            0 4       Homeowner       0.629
 4 Voted            0 5       Homeowner       0.779
 5 Voted            0 7       Not homeowner   0.803
 6 Voted            0 5       Not homeowner   0.607
 7 Voted            0 7       Homeowner       0.903
 8 Voted            0 6       Homeowner       0.875
 9 Voted            0 2       Homeowner       0.618
10 Did not vote     0 5       Homeowner       0.779
# … with 2,436 more rows
…
