Introduction to MLE - Measuring Marginal Effects on Binary Outcomes
…
The probability that an individual in a state with election day registration will vote is 70.5%, on average.

Predicting outcomes

You now have a couple of different options in terms of how you present and interpret your predicted outcomes from your logit model: log odds ratios, odds ratios, and predicted probability.

I find predicted probabilities the easiest to interpret and with which to work. Using augment::broom(), we can easily produce our predicted probabilities for each of the plausible values of close:

pred_m2 <- augment(m2, newdata = tibble(close = 0:30), type.predict = "response")
pred_m2

# A tibble: 31 × 2
   close .fitted
   <int>   <dbl>
 1     0   0.705
 2     1   0.703
 3     2   0.701
 4     3   0.700
 5     4   0.698
 6     5   0.696
 7     6   0.694
 8     7   0.692
 9     8   0.690
10     9   0.688
# … with 21 more rows
…
The regression coefficients presented above give the change in the z-score or probit index for a one unit change in the predictor. These can be interpreted as the change in the probability of success for a one unit change in the predictor. Unlike logit, we get straight to the point.

Interpreting the intercept

TODO

Predicting outcomes

Using augment::broom(), we can easily produce our predicted probabilities for each of the plausible values of close:

pred_m3 <- augment(m3, newdata = tibble(close = 0:30), type.predict = "response")
pred_m3

# A tibble: 31 × 2
   close .fitted
   <int>   <dbl>
 1     0   0.705
 2     1   0.703
 3     2   0.702
 4     3   0.700
 5     4   0.698
 6     5   0.696
 7     6   0.694
 8     7   0.692
 9     8   0.690
10     9   0.688
# … with 21 more rows
…
Marginal effects

Finally, let’s look at the difference in the predicted probability of voting by changing the closing date by one day for all plausible values of close:

me_m3 <- pred_m3 |> 
  arrange(close) |> 
  mutate(diff = .fitted - lag(.fitted))

me_m3

# A tibble: 31 × 3
   close .fitted     diff
   <int>   <dbl>    <dbl>
 1     0   0.705 NA      
 2     1   0.703 -0.00185
 3     2   0.702 -0.00185
 4     3   0.700 -0.00186
 5     4   0.698 -0.00186
 6     5   0.696 -0.00187
 7     6   0.694 -0.00187
 8     7   0.692 -0.00188
 9     8   0.690 -0.00188
10     9   0.688 -0.00189
# … with 21 more rows
…
