Introduction to MLE - Introduction to Multinomial Models
…
Let’s fit our model using nnet::multinom() and display the results using broom::tidy():

m1 <- multinom(warsup ~ female + pid, data = student_survey)

# weights:  36 (24 variable)
initial  value 1599.783693 
iter  10 value 1269.729784
iter  20 value 1238.972501
iter  30 value 1232.894042
final  value 1232.880028 
converged

tidy(m1)

# A tibble: 24 × 6
   y.level          term                      estimate std.error stati…¹ p.value
   <chr>            <chr>                        <dbl>     <dbl>   <dbl>   <dbl>
 1 Somewhat support (Intercept)                  0.239     0.427   0.560 5.76e-1
 2 Somewhat support femaleFemale                 0.655     0.181   3.61  3.06e-4
 3 Somewhat support pidWeak democrat             0.535     0.540   0.991 3.22e-1
 4 Somewhat support pidIndependent democrat      0.691     0.578   1.20  2.32e-1
 5 Somewhat support pidIndependent              -0.284     0.531  -0.535 5.93e-1
 6 Somewhat support pidIndependent republican   -0.323     0.484  -0.667 5.04e-1
 7 Somewhat support pidWeak republican          -0.406     0.450  -0.902 3.67e-1
 8 Somewhat support pidStrong republican        -1.30      0.439  -2.97  3.01e-3
 9 Somewhat oppose  (Intercept)                  1.70      0.377   4.52  6.30e-6
10 Somewhat oppose  femaleFemale                 0.468     0.222   2.11  3.49e-2
# … with 14 more rows, and abbreviated variable name ¹​statistic
…
