Introduction to MLE - Measuring Marginal Effects on Multiple Outcomes
…
      1 OR = Odds Ratio, CI = Confidence Interval

We have three options for interpreting coefficients in multinomial logistic regression.

Relative log odds

Similar to log odds ratios in binary logistic regression, these can be interpreted as the effect of a one-unit change in \(x_i\) on the log odds of being in category 2 compared to being in category 1.

For example, identifying as female is associated with a 0.676 change in the log odds of strongly opposing compared to strongly supporting the war in Iraq.

This is the default output for our model:

tidy(m1)

# A tibble: 24 × 6
   y.level          term                      estimate std.error stati…¹ p.value
   <chr>            <chr>                        <dbl>     <dbl>   <dbl>   <dbl>
 1 Somewhat support (Intercept)                  0.239     0.427   0.560 5.76e-1
 2 Somewhat support femaleFemale                 0.655     0.181   3.61  3.06e-4
 3 Somewhat support pidWeak democrat             0.535     0.540   0.991 3.22e-1
 4 Somewhat support pidIndependent democrat      0.691     0.578   1.20  2.32e-1
 5 Somewhat support pidIndependent              -0.284     0.531  -0.535 5.93e-1
 6 Somewhat support pidIndependent republican   -0.323     0.484  -0.667 5.04e-1
 7 Somewhat support pidWeak republican          -0.406     0.450  -0.902 3.67e-1
 8 Somewhat support pidStrong republican        -1.30      0.439  -2.97  3.01e-3
 9 Somewhat oppose  (Intercept)                  1.70      0.377   4.52  6.30e-6
10 Somewhat oppose  femaleFemale                 0.468     0.222   2.11  3.49e-2
# … with 14 more rows, and abbreviated variable name ¹​statistic

Relative risk ratios

Similar to odds ratios in binary logistic regression, these can be interpreted as the effect of a one-unit change in \(x_i\) on the probability of being in category 2 compared to being in category 1.

For example, identifying as female is associated with a 197% change in the probability of strongly opposing compared to strongly supporting the war in Iraq.

You can get this using broom::tidy():

tidy(m1, exponentiate = T)

# A tibble: 24 × 6
   y.level          term                      estimate std.error stati…¹ p.value
   <chr>            <chr>                        <dbl>     <dbl>   <dbl>   <dbl>
 1 Somewhat support (Intercept)                  1.27      0.427   0.560 5.76e-1
 2 Somewhat support femaleFemale                 1.92      0.181   3.61  3.06e-4
 3 Somewhat support pidWeak democrat             1.71      0.540   0.991 3.22e-1
 4 Somewhat support pidIndependent democrat      2.00      0.578   1.20  2.32e-1
 5 Somewhat support pidIndependent               0.753     0.531  -0.535 5.93e-1
 6 Somewhat support pidIndependent republican    0.724     0.484  -0.667 5.04e-1
 7 Somewhat support pidWeak republican           0.666     0.450  -0.902 3.67e-1
 8 Somewhat support pidStrong republican         0.272     0.439  -2.97  3.01e-3
 9 Somewhat oppose  (Intercept)                  5.49      0.377   4.52  6.30e-6
10 Somewhat oppose  femaleFemale                 1.60      0.222   2.11  3.49e-2
# … with 14 more rows, and abbreviated variable name ¹​statistic
…
